<?xml version="1.0" encoding="utf-8"?>
<!-- Generator: Adobe Illustrator 15.0.0, SVG Export Plug-In . SVG Version: 6.00 Build 0)  -->
<!DOCTYPE svg PUBLIC "-//W3C//DTD SVG 1.1//EN" "http://www.w3.org/Graphics/SVG/1.1/DTD/svg11.dtd">
<svg version="1.1" id="Layer_1" xmlns="http://www.w3.org/2000/svg" xmlns:xlink="http://www.w3.org/1999/xlink" x="0px" y="0px"
	 width="7.867px" height="14.445px" viewBox="3.934 7.223 7.867 14.445" enable-background="new 3.934 7.223 7.867 14.445"
	 xml:space="preserve">
<path d="M10.248,14.446L4.123,8.322c-0.251-0.252-0.251-0.658,0-0.909c0.252-0.252,0.658-0.252,0.91,0l6.58,6.579
	c0.252,0.251,0.252,0.658,0,0.909l-6.58,6.58c-0.125,0.125-0.291,0.188-0.455,0.188s-0.329-0.062-0.455-0.188
	c-0.251-0.252-0.251-0.66,0-0.911L10.248,14.446z"/>
</svg>
