<?xml version="1.0" encoding="utf-8"?>
<!-- Generator: Adobe Illustrator 15.0.0, SVG Export Plug-In . SVG Version: 6.00 Build 0)  -->
<!DOCTYPE svg PUBLIC "-//W3C//DTD SVG 1.1//EN" "http://www.w3.org/Graphics/SVG/1.1/DTD/svg11.dtd">
<svg version="1.1" id="Layer_1" xmlns="http://www.w3.org/2000/svg" xmlns:xlink="http://www.w3.org/1999/xlink" x="0px" y="0px"
	 width="18px" height="18px" viewBox="0 0 18 18" enable-background="new 0 0 18 18" xml:space="preserve">
<path fill="#010101" d="M11.317,12.471c-0.07-0.714-0.043-1.212-0.043-1.865c0.345-0.169,0.963-1.253,1.069-2.167
	c0.271-0.021,0.699-0.27,0.823-1.25c0.068-0.526-0.2-0.822-0.364-0.915c0.44-1.245,1.358-5.097-1.696-5.495
	C10.792,0.262,9.986,0,8.94,0C4.753,0.072,4.248,2.964,5.166,6.274C5.003,6.367,4.735,6.664,4.801,7.189
	c0.126,0.98,0.554,1.228,0.825,1.25c0.104,0.914,0.747,1.998,1.093,2.167c0,0.653,0.026,1.151-0.042,1.865
	C5.848,14.56,0.258,13.973,0,18h17.969C17.711,13.973,12.146,14.56,11.317,12.471z"/>
</svg>
