<?xml version="1.0" encoding="utf-8"?>
<!-- Generator: Adobe Illustrator 15.0.0, SVG Export Plug-In . SVG Version: 6.00 Build 0)  -->
<!DOCTYPE svg PUBLIC "-//W3C//DTD SVG 1.1//EN" "http://www.w3.org/Graphics/SVG/1.1/DTD/svg11.dtd">
<svg version="1.1" id="Layer_1" xmlns="http://www.w3.org/2000/svg" xmlns:xlink="http://www.w3.org/1999/xlink" x="0px" y="0px"
	 width="103px" height="28px" viewBox="0 0 103 28" enable-background="new 0 0 103 28" xml:space="preserve">
<g>
	<path d="M30.689,14.732c-0.406-0.296-0.93-0.538-1.571-0.725c-0.642-0.185-1.416-0.303-2.322-0.353
		c1.501-0.172,2.58-0.499,3.236-0.981c0.657-0.483,0.985-1.126,0.985-1.931c0-0.985-0.539-1.695-1.618-2.126
		c-1.079-0.432-2.713-0.649-4.902-0.649c-0.906,0-1.793,0.01-2.658,0.03c-0.866,0.021-1.741,0.051-2.626,0.091v0.679
		c0.417,0,0.748,0.015,0.992,0.045c0.245,0.031,0.438,0.075,0.579,0.136s0.243,0.141,0.305,0.241c0.062,0.1,0.115,0.221,0.156,0.362
		c0.042,0.151,0.071,0.356,0.086,0.618c0.017,0.262,0.024,0.649,0.024,1.162v5.552c0,0.522-0.011,0.952-0.032,1.289
		c-0.021,0.336-0.046,0.575-0.078,0.716c-0.031,0.131-0.083,0.25-0.156,0.354c-0.073,0.104-0.18,0.195-0.32,0.264
		c-0.141,0.07-0.326,0.125-0.556,0.165c-0.229,0.041-0.521,0.062-0.875,0.062h-0.203v0.709h5.832c1.116,0,2.101-0.061,2.955-0.182
		c0.855-0.122,1.574-0.314,2.158-0.582c0.583-0.266,1.026-0.615,1.329-1.047c0.301-0.433,0.453-0.965,0.453-1.598
		c0-0.452-0.094-0.877-0.282-1.268C31.393,15.374,31.096,15.03,30.689,14.732z M23.654,8.737c0.156-0.02,0.315-0.03,0.478-0.03
		c0.161,0,0.314,0,0.461,0c0.865,0,1.558,0.048,2.079,0.143c0.521,0.097,0.92,0.237,1.196,0.423c0.276,0.186,0.455,0.42,0.539,0.701
		s0.125,0.608,0.125,0.98c0,0.462-0.076,0.85-0.228,1.161c-0.151,0.312-0.414,0.561-0.789,0.747
		c-0.375,0.186-0.876,0.319-1.501,0.399c-0.625,0.081-1.412,0.121-2.36,0.121V8.737z M25.592,19.733
		c-0.343,0-0.631-0.021-0.86-0.062c-0.229-0.04-0.414-0.099-0.555-0.181c-0.141-0.081-0.245-0.175-0.312-0.285
		c-0.068-0.111-0.112-0.241-0.133-0.391c-0.021-0.163-0.039-0.421-0.055-0.78c-0.016-0.354-0.023-0.816-0.023-1.379v-2.625
		c0.156-0.01,0.307-0.016,0.454-0.016c0.146,0,0.292,0,0.438,0c0.896,0,1.652,0.059,2.267,0.174c0.615,0.116,1.11,0.292,1.485,0.528
		c0.375,0.237,0.643,0.534,0.805,0.891c0.161,0.356,0.242,0.779,0.242,1.274C29.345,18.783,28.094,19.733,25.592,19.733z"/>
	<path d="M71.514,14.385c-0.375-0.307-0.829-0.547-1.359-0.723c-0.531-0.177-1.134-0.265-1.802-0.265
		c-0.259,0-0.544,0.03-0.858,0.091c0.971-0.372,1.753-0.717,2.346-1.033c0.595-0.317,1.057-0.618,1.383-0.905
		c0.329-0.287,0.548-0.561,0.657-0.822c0.11-0.261,0.165-0.528,0.165-0.799c0-0.462-0.154-0.847-0.461-1.154
		c-0.309-0.307-0.696-0.546-1.166-0.716c-0.469-0.171-0.982-0.292-1.54-0.362c-0.557-0.07-1.081-0.106-1.57-0.106
		c-0.375,0-0.762,0.018-1.157,0.053c-0.396,0.035-0.778,0.089-1.147,0.159c-0.372,0.07-0.719,0.159-1.042,0.264
		c-0.322,0.105-0.595,0.233-0.814,0.385c-0.437,0.281-0.752,0.586-0.943,0.913c-0.193,0.327-0.291,0.666-0.291,1.018
		c0,0.513,0.109,0.897,0.329,1.154c0.219,0.257,0.491,0.384,0.812,0.384c0.116,0,0.236-0.015,0.362-0.044
		c0.124-0.031,0.237-0.07,0.343-0.121c0.105-0.05,0.19-0.115,0.26-0.196c0.067-0.081,0.1-0.171,0.1-0.272
		c0-0.121-0.024-0.211-0.079-0.271c-0.051-0.061-0.105-0.128-0.165-0.204c-0.057-0.076-0.111-0.171-0.161-0.287
		c-0.053-0.116-0.077-0.289-0.077-0.521c0-0.321,0.075-0.588,0.225-0.799c0.152-0.211,0.359-0.38,0.625-0.505
		c0.267-0.126,0.585-0.214,0.955-0.264c0.369-0.05,0.768-0.076,1.196-0.076c0.396,0,0.768,0.03,1.116,0.091
		c0.35,0.061,0.656,0.161,0.914,0.301c0.263,0.141,0.467,0.322,0.619,0.543c0.15,0.221,0.226,0.498,0.226,0.83
		c0,0.363-0.034,0.666-0.102,0.913c-0.067,0.246-0.216,0.48-0.444,0.702c-0.229,0.221-0.557,0.45-0.985,0.686
		c-0.426,0.236-1.005,0.53-1.735,0.882c-0.334,0.16-0.593,0.297-0.78,0.407c-0.189,0.111-0.329,0.204-0.425,0.28
		c-0.093,0.075-0.149,0.143-0.172,0.202c-0.019,0.062-0.031,0.117-0.031,0.166c0,0.102,0.029,0.195,0.088,0.279
		c0.057,0.086,0.142,0.129,0.255,0.129c0.086,0,0.167-0.015,0.253-0.045c0.083-0.03,0.15-0.059,0.203-0.09
		c0.125-0.061,0.273-0.118,0.444-0.173c0.173-0.056,0.353-0.107,0.54-0.151c0.189-0.045,0.378-0.08,0.57-0.107
		c0.193-0.025,0.368-0.036,0.523-0.036c0.45,0,0.827,0.057,1.134,0.172c0.309,0.116,0.555,0.286,0.744,0.505
		c0.188,0.223,0.32,0.496,0.397,0.822c0.079,0.328,0.117,0.697,0.117,1.109c0,0.675-0.089,1.23-0.266,1.667
		c-0.178,0.438-0.438,0.783-0.782,1.041c-0.343,0.255-0.771,0.436-1.281,0.535c-0.51,0.101-1.101,0.15-1.769,0.15
		c-0.24,0-0.495-0.025-0.771-0.074c-0.278-0.052-0.542-0.124-0.799-0.22c-0.255-0.096-0.495-0.215-0.719-0.362
		c-0.223-0.145-0.403-0.312-0.54-0.504c-0.176-0.232-0.347-0.407-0.509-0.528c-0.159-0.123-0.355-0.182-0.585-0.182
		c-0.139,0-0.255,0.017-0.35,0.05c0,0,0,0-0.001,0c-0.003,0-0.003,0-0.005,0.002l0,0c-0.222,0.069-0.248,0.12-0.307,0.197
		c-0.015,0.017-0.071,0.094-0.105,0.151c-0.323,0.638-0.98,0.957-1.534,0.957c-0.418,0-0.688-0.167-0.813-0.497
		c-0.124-0.332-0.187-1.081-0.187-2.247v-4.994c0-1.055-0.118-1.839-0.354-2.353c-0.233-0.513-0.715-0.97-1.445-1.373
		c-0.729-0.401-1.756-0.603-3.081-0.603c-1.781,0-3.095,0.33-3.939,0.988c-0.844,0.659-1.266,1.274-1.266,1.848
		c0,0.583,0.318,0.875,0.954,0.875c0.709,0,1.147-0.513,1.313-1.539c0.178-1.005,1.047-1.508,2.61-1.508
		c0.783,0,1.415,0.151,1.894,0.452c0.478,0.302,0.776,0.644,0.892,1.026c0.113,0.382,0.17,1,0.17,1.855v6.2
		c-0.801,0.624-1.524,1.092-2.172,1.401c-0.646,0.313-1.214,0.469-1.705,0.469c-0.552,0-1-0.193-1.344-0.58
		c-0.344-0.389-0.517-0.897-0.517-1.532c0-1.598,1.358-3.178,4.049-4.234l0.603-0.254l-0.006-0.014
		c0.071-0.032,0.126-0.088,0.126-0.167c0-0.11-0.092-0.199-0.205-0.199c-0.021,0-0.035,0.015-0.051,0.02l-0.005-0.013l-1.195,0.458
		c-1.846,0.735-3.292,1.488-4.34,2.262c-1.047,0.775-1.571,1.68-1.571,2.716c0,0.793,0.313,1.433,0.938,1.915
		c0.625,0.483,1.37,0.725,2.236,0.725c0.676,0,1.446-0.181,2.306-0.544c0.859-0.362,1.811-0.899,2.852-1.612
		c0.126,0.713,0.395,1.25,0.807,1.612c0.411,0.363,0.971,0.544,1.682,0.544c1.168,0,2.037-0.433,2.483-1.289
		c0.028,0.044,0.06,0.085,0.1,0.128c0.092,0.102,0.227,0.204,0.397,0.309s0.393,0.22,0.664,0.341
		c0.21,0.088,0.446,0.173,0.711,0.247c0.269,0.077,0.548,0.136,0.845,0.181c0.296,0.046,0.6,0.081,0.907,0.105
		c0.308,0.026,0.611,0.038,0.914,0.038c0.481,0,0.976-0.026,1.485-0.082c0.511-0.055,1.015-0.148,1.508-0.28
		c0.498-0.13,0.967-0.298,1.409-0.504c0.443-0.206,0.829-0.458,1.156-0.756c0.328-0.296,0.593-0.643,0.789-1.038
		c0.197-0.397,0.297-0.849,0.297-1.352c0-0.472-0.102-0.918-0.305-1.335C72.178,15.056,71.889,14.693,71.514,14.385z"/>
	<path d="M41.297,7.59c-0.855,0-1.666,0.168-2.432,0.506c-0.766,0.337-1.482,0.847-2.15,1.531c0-0.795-0.088-1.474-0.266-2.037
		h-0.422c-1.574,0.403-2.877,0.654-3.909,0.755v0.693h0.469c0.667,0,1.131,0.09,1.392,0.271c0.26,0.182,0.409,0.443,0.445,0.785
		c0.037,0.341,0.055,1.171,0.055,2.488v11.222c0,1.379-0.019,2.211-0.055,2.497c-0.036,0.285-0.167,0.531-0.39,0.737
		c-0.225,0.206-0.707,0.312-1.447,0.312h-0.469v0.692h6.691v-0.692c-0.74,0-1.246-0.078-1.517-0.235
		c-0.271-0.156-0.436-0.389-0.492-0.701c-0.057-0.311-0.086-1.181-0.086-2.609V10.607c0.584-0.714,1.199-1.247,1.845-1.598
		c0.646-0.353,1.329-0.528,2.049-0.528c1.167,0,2.172,0.458,3.018,1.373c0.844,0.915,1.267,2.298,1.267,4.149
		c0,2.131-0.438,3.685-1.314,4.661c-0.875,0.975-1.902,1.463-3.08,1.463c-0.699,0-1.363-0.171-1.994-0.506
		c-0.211-0.114-0.419-0.246-0.625-0.396c0,0,0,0-0.001,0c0.002,0.002,0.003,0.004,0.004,0.006c-0.045-0.038-0.103-0.064-0.169-0.064
		c-0.076,0-0.143,0.033-0.191,0.084c-0.042,0.044-0.069,0.104-0.069,0.172c0,0.064,0.028,0.12,0.069,0.167v0.002
		c0.007,0.007,0.015,0.016,0.021,0.023c0.281,0.332,0.807,0.688,1.226,0.864c0.725,0.307,1.483,0.462,2.275,0.462
		c1.928,0,3.484-0.651,4.667-1.945c1.182-1.298,1.774-2.911,1.774-4.842c0-1.972-0.589-3.558-1.767-4.76
		C44.543,8.191,43.069,7.59,41.297,7.59z M37.938,19.296c0.004,0.007,0.01,0.014,0.014,0.02
		C37.948,19.31,37.942,19.303,37.938,19.296z"/>
	<path d="M102.548,19.733c-0.585,0-1-0.069-1.245-0.204c-0.246-0.136-0.395-0.344-0.445-0.627c-0.022-0.141-0.041-0.373-0.055-0.7
		c-0.017-0.328-0.022-0.747-0.022-1.261v-5.716c0-0.533,0.01-0.96,0.03-1.282c0.021-0.322,0.088-0.57,0.203-0.747
		c0.114-0.176,0.302-0.292,0.557-0.347c0.254-0.055,0.615-0.083,1.085-0.083h0.251V8.088l-2.017-0.091
		c-0.668-0.03-1.265-0.05-1.79-0.06c-0.528-0.01-0.983-0.015-1.369-0.015c-0.959,0-1.813,0.066-2.564,0.196
		c-0.749,0.131-1.383,0.33-1.898,0.596s-0.914,0.601-1.188,1.003c-0.277,0.403-0.417,0.88-0.417,1.433
		c0,0.392,0.079,0.762,0.235,1.109c0.157,0.347,0.394,0.656,0.713,0.928c0.316,0.271,0.715,0.502,1.194,0.693
		c0.48,0.191,1.041,0.322,1.688,0.393c-0.279,0.121-0.633,0.403-1.056,0.846c-0.422,0.442-0.963,1.055-1.618,1.84
		c-0.363,0.433-0.692,0.799-0.984,1.1c-0.291,0.301-0.564,0.554-0.821,0.757c-0.255,0.198-0.493,0.359-0.719,0.481
		c-0.225,0.119-0.446,0.21-0.664,0.271c-0.219,0.06-0.448,0.098-0.687,0.131c-0.172,0.024-0.353,0.032-0.566,0.028
		c-0.358-0.037-0.631-0.111-0.812-0.226c-0.259-0.165-0.418-0.4-0.469-0.702c-0.02-0.151-0.04-0.441-0.057-0.868
		c-0.012-0.427-0.021-1.004-0.021-1.727v-3.876c0-0.724,0.009-1.299,0.021-1.727c0.017-0.427,0.037-0.716,0.057-0.867
		c0.051-0.302,0.21-0.536,0.469-0.701c0.261-0.166,0.709-0.249,1.345-0.249h0.327V8.088h-6.801v0.694h0.438
		c0.396,0,0.717,0.033,0.963,0.099c0.246,0.065,0.431,0.161,0.561,0.286c0.132,0.125,0.22,0.279,0.269,0.46
		c0.044,0.18,0.068,0.387,0.068,0.618l-6.94,6.696v-4.615c0-1.308,0.014-2.136,0.047-2.489c0.04-0.341,0.19-0.603,0.452-0.784
		c0.263-0.181,0.723-0.271,1.394-0.271h0.437V8.088h-6.801v0.694h0.326c0.636,0,1.085,0.083,1.347,0.249
		c0.261,0.166,0.417,0.399,0.468,0.701c0.022,0.151,0.041,0.44,0.057,0.867c0.015,0.428,0.022,1.003,0.022,1.727v3.876
		c0,0.723-0.008,1.3-0.022,1.727c-0.016,0.427-0.034,0.717-0.057,0.868c-0.051,0.302-0.207,0.537-0.468,0.702
		c-0.262,0.164-0.711,0.248-1.347,0.248h-0.326v0.694h6.801v-0.694h-0.437c-0.671,0-1.131-0.091-1.394-0.272
		c-0.262-0.18-0.412-0.44-0.452-0.783l-0.033-0.287l6.958-6.712v4.51c0,1.316-0.015,2.146-0.045,2.489
		c-0.043,0.343-0.193,0.604-0.456,0.783c-0.257,0.182-0.723,0.272-1.391,0.272h-0.438v0.694h9.993
		c0.585-0.402,1.49-1.479,2.719-3.228c0.18-0.252,0.373-0.515,0.589-0.792c0.214-0.276,0.418-0.534,0.615-0.771
		c0.199-0.235,0.375-0.443,0.532-0.618c0.156-0.175,0.272-0.289,0.346-0.339c0.113-0.09,0.229-0.14,0.442-0.163
		c0,0,0.059-0.009,0.075-0.011c0.109-0.019,0.203-0.181,0.203-0.405c0-0.221-0.087-0.402-0.195-0.402
		c-0.012,0-0.244-0.01-0.244-0.01c-0.343-0.017-0.463-0.027-0.775-0.049c-0.538-0.041-0.999-0.139-1.391-0.294
		c-0.391-0.156-0.696-0.393-0.914-0.709c-0.22-0.318-0.329-0.772-0.329-1.366c0-0.562,0.096-1.013,0.289-1.35
		c0.192-0.336,0.452-0.596,0.781-0.777c0.329-0.18,0.709-0.301,1.142-0.362c0.432-0.06,0.89-0.09,1.368-0.09
		c0.229,0,0.493,0.015,0.796,0.045v4.576v0.416v0.769v0.839v1.589c0,0.494-0.004,0.892-0.012,1.192
		c-0.012,0.302-0.032,0.544-0.065,0.726c-0.03,0.18-0.079,0.314-0.142,0.406c-0.062,0.089-0.145,0.172-0.247,0.24
		c-0.24,0.151-0.648,0.228-1.222,0.228H96.12v0.709H103v-0.709H102.548z"/>
	<path d="M15.7,17.619c-0.65,0.856-1.334,1.425-2.052,1.7c-0.718,0.278-1.634,0.415-2.749,0.415H9.322
		c-1.416,0-2.285-0.216-2.608-0.639c-0.323-0.429-0.484-1.853-0.484-4.271V8.874h2.327c0.905,0,1.547,0.057,1.927,0.173
		c0.38,0.115,0.67,0.366,0.868,0.753c0.198,0.387,0.296,1.146,0.296,2.281h0.734V5.091h-0.734c0,1.004-0.065,1.681-0.196,2.027
		c-0.13,0.347-0.401,0.604-0.812,0.775c-0.412,0.17-1.131,0.258-2.162,0.258H6.23V0.693h2.936c1.479,0,2.551,0.079,3.217,0.234
		c0.666,0.156,1.242,0.532,1.725,1.129c0.485,0.598,0.893,1.609,1.227,3.035h0.734L15.568,0H0.437v0.693
		c1.02,0,1.688,0.099,2.007,0.294c0.316,0.196,0.519,0.54,0.608,1.032C3.14,2.511,3.186,3.535,3.186,5.092v10.021
		c0,1.705-0.042,2.768-0.125,3.182c-0.083,0.42-0.279,0.764-0.584,1.037c-0.309,0.271-0.987,0.403-2.039,0.403H0v0.693h17.536
		l0.454-6.357h-0.75C16.865,15.575,16.351,16.759,15.7,17.619z"/>
</g>
</svg>
